<?xml version="1.0" encoding="UTF-8"?>
<pattern xmlns="http://purl.oclc.org/dsdl/schematron" id="code-list-rules"><!-- Georgia CJE Genericode List Constraints 
$Id: order-constraints-doc.cva,v 1.21 2012/04/18 21:53:16 admin Exp $

    Required namespace declarations as indicated in this set of rules:
    
<ns prefix="cbrn" uri="http://release.niem.gov/niem/domains/cbrn/3.2/"/>
<ns prefix="ecf" uri="https://docs.oasis-open.org/legalxml-courtfiling/ns/v5.0/ecf"/>
<ns prefix="ga" uri="http://cje.georgia.gov/v.0/extension"/>
<ns prefix="filing" uri="https://docs.oasis-open.org/legalxml-courtfiling/ns/v5.0/filing"/>
<ns prefix="hdr" uri="http://cje.georgia.gov/extension/header/1.0"/>
<ns prefix="x" uri="http://www.w3.org/TR/REC-html40"/>
<ns prefix="nc" uri="http://release.niem.gov/niem/niem-core/3.0/"/>
<ns prefix="j" uri="http://release.niem.gov/niem/domains/jxdm/5.2/"/>

--><rule context="nc:BinaryFormatText">
      <!--{}[](binaryFormatText)--><assert test="( false() or ( contains('&#127;application/json&#127;application/msword&#127;application/pdf&#127;application/vnd.oasis.opendocument.text&#127;application/vnd.openxmlformats-officedocument.wordprocessingml.document&#127;application/xml&#127;',concat('&#127;',.,'&#127;')) ) ) ">Invalid binary format code value.</assert>
   </rule>
   <rule context="ecf:CaseCategoryCode">
      <!--{}[](caseCategoryCode)--><assert test="( false() or ( contains('&#127;appellate&#127;bankruptcy&#127;citation&#127;civil&#127;criminal&#127;domestic&#127;juvenile&#127;',concat('&#127;',.,'&#127;')) ) ) ">Invalid case category code value.</assert>
   </rule>
   <rule context="ecf:CaseParticipantRoleCode">
      <!--{}[](caseParticipantRoleCode)--><assert test="( false() or ( contains('&#127;Administrator&#127;AdoptedChild&#127;AdoptiveParent&#127;Affiant&#127;Appellant&#127;Appellee&#127;Arbitrator&#127;Attorney&#127;Auditor&#127;BailBondsman&#127;Bailiff&#127;Beneficiary&#127;CASA&#127;CaseWorker&#127;Child&#127;Claimant&#127;Clerk&#127;Constable&#127;Contestee&#127;Contestor&#127;CounterDefendant&#127;CounterPlaintiff&#127;CourtReporter&#127;Creditor&#127;CrossAppellant&#127;CrossAppellee&#127;CrossClaimant&#127;CrossDefendant&#127;Decedent&#127;Defendant&#127;Demandant&#127;Executor&#127;Fiduciary&#127;CASA&#127;Conflict defender&#127;Defendant counsel&#127;Guardian ad litem&#127;Interpleader attorney&#127;Intervenor attorney&#127;Lead attorney&#127;Petitioner attorney&#127;Plaintiff attorney&#127;Private defense counsel&#127;Pro hac vice&#127;Prosecutor&#127;Public defender&#127;Respondent attorney&#127;Third party plaintiff attorney&#127;FosterParent&#127;FriendOfCourt&#127;Garnishee&#127;GovernmentEntity&#127;GrandParent&#127;Guardian&#127;HearingOfficer&#127;Heir&#127;InterestedParty&#127;Interpreter&#127;Intervenor&#127;InRemProperty&#127;Judge&#127;JudicialStaff&#127;LegalDefender&#127;LocalCounsel&#127;Magistrate&#127;MarriageApplicant&#127;Master&#127;Mediator&#127;MedicalExaminer&#127;Minor&#127;MinorVictim&#127;NextFriend&#127;NextOfKin&#127;Other&#127;Parent&#127;Patient&#127;Payor&#127;Person&#127;Petitioner&#127;Plaintiff&#127;ProbationOfficer&#127;ProbateOfficer&#127;Probationer&#127;ProcessServer&#127;Property&#127;RealPartyInInterest&#127;Rehabilitator&#127;Respondent&#127;SelfRepresentedLitigant&#127;SentencingJudge&#127;SpecialMaster&#127;SpecialRepresentative&#127;SubpoenaedEntity&#127;Surety&#127;ThirdPartyDefendant&#127;ThirdPartyDefendantAttorney&#127;ThirdPartyProvider&#127;ThirdPartyPlaintiff&#127;TrustMaker&#127;Trustee&#127;Victim&#127;IncapacitatedPerson&#127;Witness&#127;',concat('&#127;',.,'&#127;')) ) ) ">Invalid case participant role code value.</assert>
   </rule>
   <rule context="ecf:CaseCategoryCode">
      <!--{}[](caseTypeCode)--><assert test="( false() or ( contains('&#127;appellate&#127;bankruptcy&#127;citation&#127;civil&#127;criminal&#127;domestic&#127;juvenile&#127;',concat('&#127;',.,'&#127;')) ) ) ">Invalid case catecogery code value.</assert>
   </rule>
   <rule context="ga:CCHSentenceCategoryCode">
      <!--{}[](cchSentenceCode)--><assert test="( false() or ( contains('&#127;DUMMY CODE&#127;',concat('&#127;',.,'&#127;')) ) ) ">Invalid CCH sentence category code value.</assert>
   </rule>
   <rule context="j:SeverityLevelDescriptionText">
      <!--{}[](chargeSeverityCodeList)--><assert test="( false() or ( contains('&#127;F&#127;M&#127;',concat('&#127;',.,'&#127;')) ) ) ">Invalid severity level code value.</assert>
   </rule>
   <rule context="j:StatuteCodeIdentification/nc:IdentificationID">
      <!--{}[](chargeStatuteCode)--><assert test="( false() or ( contains('&#127;10-1-453&#127;16-10-1&#127;16-10-2&#127;16-10-20&#127;16-10-21(a)&#127;16-10-22&#127;16-10-23&#127;16-10-24(a)&#127;16-10-24(b)&#127;16-10-24.3&#127;16-10-24.1(c)&#127;16-10-24.2(c)&#127;16-10-25&#127;16-10-26&#127;16-10-27&#127;16-10-28&#127;16-10-29&#127;16-10-3&#127;16-10-30&#127;16-10-31&#127;16-10-33&#127;16-10-4&#127;16-10-5&#127;16-10-50&#127;16-10-51(a)&#127;16-10-52&#127;16-10-53(a)&#127;16-10-54&#127;16-10-55&#127;16-10-56&#127;16-10-6(b)&#127;16-10-7&#127;16-10-70&#127;16-10-71&#127;16-10-72&#127;16-10-73&#127;16-10-8&#127;16-10-9&#127;16-10-90&#127;16-10-91&#127;16-10-92&#127;16-10-93&#127;16-10-94&#127;16-10-94.1&#127;16-10-96&#127;16-10-97&#127;16-11-1&#127;16-11-100&#127;16-11-101&#127;16-11-101.1&#127;16-11-102&#127;16-11-103&#127;16-11-104&#127;16-11-106&#127;16-11-107&#127;16-11-108(a)&#127;16-11-108(a)&#127;27-2-1&#127;16-11-109(a)(2)&#127;16-11-123&#127;16-11-126&#127;16-11-127&#127;16-11-127.1&#127;16-11-129&#127;16-11-131(b)&#127;16-11-131(b)&#127;16-11-132(b)&#127;16-11-133&#127;16-11-134&#127;16-11-151&#127;16-11-160(a)(1)&#127;16-11-2&#127;16-11-3&#127;16-11-30(a)&#127;16-11-31&#127;16-11-32&#127;16-11-33&#127;16-11-35&#127;16-11-36&#127;16-11-37(a)&#127;16-11-38&#127;16-11-39&#127;16-11-39.1&#127;16-11-4&#127;16-11-40&#127;16-11-41&#127;16-11-42&#127;16-11-43&#127;16-11-44&#127;16-11-61&#127;16-11-62&#127;16-11-63&#127;16-11-81&#127;16-11-34&#127;16-12-1(b)(1)&#127;16-12-100(b)&#127;16-12-100.1(b)&#127;16-12-120(a)&#127;16-12-123(a)&#127;16-12-123(b)&#127;16-12-124&#127;16-12-160&#127;16-12-161&#127;16-12-171(a)&#127;16-12-171(b)&#127;16-12-172&#127;16-12-173(a)&#127;16-12-173(e)&#127;16-12-174&#127;16-12-2&#127;16-12-22&#127;16-12-23&#127;16-12-24(a)&#127;16-12-25&#127;16-12-26&#127;16-12-27&#127;16-12-28&#127;16-12-3&#127;16-12-33&#127;16-12-34&#127;16-12-35&#127;16-12-37(b)&#127;16-12-4(b)&#127;16-12-57&#127;16-12-58&#127;16-12-59&#127;16-12-60&#127;16-12-62&#127;16-12-80&#127;16-12-81&#127;16-13-1(b)&#127;16-13-3&#127;16-13-30(a)&#127;16-13-30(a)&#127;16-13-30(j)(1)&#127;16-13-30(j)(1)&#127;16-13-30(a)&#127;16-13-30(b)&#127;16-13-30(j)&#127;16-13-30(a)&#127;16-13-30(a)&#127;16-13-30(a)&#127;16-13-30(j)(1)&#127;16-13-30(b)&#127;16-13-30(a)&#127;16-13-30(b)&#127;16-13-30(a)&#127;16-13-30(b)&#127;16-13-30(b)&#127;16-13-30(b)&#127;16-13-30(j)&#127;16-13-30(b)&#127;16-13-30.1&#127;16-13-30.2&#127;16-13-31(a)&#127;16-13-31(b)&#127;16-13-31(c)&#127;16-13-31(d)&#127;16-13-31(e)&#127;16-13-32&#127;16-13-32.1&#127;16-13-32.2&#127;16-13-32.3&#127;16-13-32.4&#127;16-13-32.5(a)&#127;16-13-32.6&#127;16-13-33&#127;16-13-4&#127;16-13-42&#127;16-13-43(a)(6)&#127;16-13-72&#127;16-13-73&#127;16-13-75&#127;16-13-76&#127;16-13-78&#127;16-13-78.1&#127;16-13-78.2&#127;16-13-91&#127;16-13-92&#127;16-13-93&#127;16-14-4(a)&#127;16-14-4(b)&#127;16-14-4(c)&#127;16-15-4&#127;16-4-1&#127;16-4-8&#127;16-5-1(a)&#127;16-5-2&#127;16-5-20&#127;16-5-21&#127;16-5-21(c)&#127;16-5-23&#127;16-5-23.1&#127;16-5-23.1(f)(2)&#127;16-5-24&#127;16-5-24(h)&#127;16-5-3(a)&#127;16-5-3(b)&#127;16-5-40&#127;16-5-41&#127;16-5-42&#127;16-5-43&#127;16-5-44&#127;16-5-44.1&#127;16-5-45(b)&#127;16-5-45(c)&#127;16-5-5&#127;16-5-60(b)&#127;16-5-60(c)&#127;16-5-61&#127;16-5-70&#127;16-5-70(c)&#127;16-5-71&#127;16-5-71.1&#127;16-5-72&#127;16-5-80(b)&#127;16-5-90&#127;16-5-91&#127;16-5-95&#127;16-6-1&#127;16-6-10&#127;16-6-11&#127;16-6-12&#127;16-6-14&#127;16-6-15(b)&#127;16-6-16&#127;16-6-17&#127;16-6-18&#127;16-6-19&#127;16-6-20&#127;16-6-2(a)(1)&#127;16-6-21&#127;16-6-2(a)(2)&#127;16-6-22&#127;16-6-22.1(b)&#127;16-6-22.2&#127;16-6-23&#127;16-6-3(a)&#127;16-6-4(a)&#127;16-6-4(c)&#127;16-6-5&#127;16-6-5.1&#127;16-6-6(a)&#127;16-6-7&#127;16-6-8&#127;16-6-9&#127;16-7-1&#127;16-7-20&#127;16-7-21(a)&#127;16-7-21(b)&#127;16-7-22&#127;16-7-23&#127;16-7-24(a)&#127;16-7-24(b)&#127;16-7-25&#127;16-7-26&#127;16-7-27&#127;16-7-43&#127;16-7-47&#127;16-7-52&#127;16-7-60&#127;16-7-61&#127;16-7-62&#127;16-7-82&#127;16-7-83(a)&#127;16-7-83(b)&#127;16-7-85&#127;16-7-86&#127;16-8-13&#127;16-8-14&#127;16-8-15&#127;16-8-16&#127;16-8-18&#127;16-8-2&#127;16-8-20&#127;16-8-21(b)&#127;16-8-3&#127;16-8-4&#127;16-8-40&#127;16-8-40(a)(1)&#127;16-8-40(a)(3)&#127;16-8-41&#127;16-8-5&#127;16-8-6&#127;16-8-7&#127;16-8-8&#127;16-8-83&#127;16-8-9&#127;16-9-1&#127;16-9-110&#127;16-9-121&#127;16-9-2&#127;16-9-20&#127;16-9-21&#127;16-9-31(a)(1)&#127;16-9-31(a)(3)&#127;16-9-31(a)(4)&#127;16-9-32(a)(1)&#127;16-9-32(a)(2)&#127;16-9-32(a)(3)&#127;16-9-33(a)(1)&#127;16-9-33(a)(2)(A)&#127;16-9-33(a)(2)(B)&#127;16-9-33(a)(2)(C)&#127;16-9-33(a)(3)&#127;16-9-33(a)(4)&#127;16-9-33(a)(5)&#127;16-9-33(b)(1)&#127;16-9-33(b)(2)&#127;16-9-33(b)(3)&#127;16-9-33(d)&#127;16-9-33(e)&#127;16-9-34(a)&#127;16-9-35&#127;16-9-36.1&#127;16-9-37&#127;16-9-39(b)&#127;16-9-50&#127;16-9-51&#127;16-9-52(a)&#127;16-9-53&#127;16-9-54&#127;16-9-55&#127;16-9-56&#127;16-9-57&#127;16-9-61&#127;16-9-70&#127;16-9-93(a)&#127;16-9-93.1&#127;16-9-93(b)&#127;16-9-93(c)&#127;16-9-93(d)&#127;16-9-93(e)&#127;17-6-58&#127;19-10-1&#127;19-10-1&#127;19-10-2(b)&#127;19-11-10&#127;19-3-3&#127;19-3-47&#127;19-3-48&#127;19-7-5(h)&#127;20-2-690.1&#127;21-2-561&#127;27-3-10&#127;27-3-2&#127;27-3-48&#127;27-3-7&#127;3-1-5&#127;3-10-2&#127;3-10-5&#127;3-10-7&#127;3-3-20&#127;3-3-21&#127;3-3-21.1&#127;3-3-22&#127;3-3-23&#127;3-3-23&#127;3-3-23&#127;3-3-24&#127;3-3-24.2&#127;3-3-25&#127;3-3-26&#127;3-3-27&#127;3-3-29&#127;3-3-3&#127;3-3-41&#127;3-3-42&#127;3-3-43&#127;3-3-44&#127;3-3-45&#127;3-3-5&#127;3-3-6&#127;33-1-7&#127;33-1-8&#127;33-1-9&#127;34-8-256&#127;34-9-19&#127;4-1-6&#127;40-1-4&#127;40-11-9&#127;40-14-10&#127;40-2-114&#127;40-2-20(a)&#127;40-2-3&#127;40-2-4&#127;40-2-5&#127;40-2-6&#127;40-2-7&#127;40-2-8&#127;40-2-8(c)&#127;40-2-8.1&#127;40-3-32&#127;40-3-90&#127;40-3-91(a)(1)&#127;40-3-92&#127;40-4-21(b)&#127;40-4-22&#127;40-4-40&#127;40-4-41&#127;40-4-6&#127;40-5-120&#127;40-5-121(a)&#127;40-5-121&#127;40-5-122&#127;40-5-123&#127;40-5-125(a)&#127;40-5-143&#127;40-5-145&#127;40-5-146&#127;40-5-20(a)&#127;40-5-20(b)&#127;40-5-20(a)&#127;40-5-20(c)&#127;40-5-58&#127;40-5-58&#127;40-5-58(e)(6)(A)&#127;40-5-58(e)(6)(A)(i)&#127;40-5-64&#127;40-6-10(a)&#127;40-6-120&#127;40-6-123(b)&#127;40-6-14(a)&#127;40-6-163&#127;40-6-180&#127;40-6-181&#127;40-6-184&#127;40-6-186&#127;40-6-2&#127;40-6-20&#127;40-6-202&#127;40-6-226&#127;40-6-240&#127;40-6-247&#127;40-6-248&#127;40-6-250&#127;40-6-251&#127;40-6-253&#127;40-6-254&#127;40-6-255&#127;40-6-26&#127;40-6-270(a)&#127;40-6-272&#127;40-6-315&#127;40-6-390&#127;40-6-391&#127;40-6-391(l)&#127;40-6-393(a)&#127;40-6-393.1(b)&#127;40-6-394&#127;40-6-395(b)(5)(A)&#127;40-6-396(a)&#127;40-6-397&#127;40-6-40&#127;40-6-46&#127;40-6-48&#127;40-6-49&#127;40-6-50&#127;40-6-71&#127;40-6-72 (b)&#127;40-6-93&#127;40-7-4&#127;40-8-116&#127;40-8-181&#127;40-8-20&#127;40-8-31&#127;40-8-7&#127;40-8-71&#127;40-8-73.1&#127;40-8-76&#127;40-8-76.1(b)&#127;40-8-79&#127;40-8-90(c)&#127;40-8-91&#127;40-8-92&#127;42-1-12&#127;42-4-13(e)&#127;42-4-13(b)&#127;49-4-15&#127;50-27-27&#127;16-12-21&#127;15-19-51&#127;16-13-30(a)&#127;40-6-164&#127;40-6-271&#127;40-6-391(a)(2)&#127;40-6-391(a)(3)&#127;40-6-391(a)(4)&#127;40-6-391(a)(5)&#127;40-6-43&#127;40-6-44&#127;40-6-47 (b)&#127;40-8-73&#127;42-4-13(d)(1)(B)&#127;40-8-25&#127;40-6-73&#127;16-5-70(d)&#127;40-8-23&#127;16-9-4&#127;16-9-4&#127;16-4-7&#127;16-6-22.1(d)&#127;3-3-27(a)(1)&#127;16-12-4(c)&#127;19-10-2(c)&#127;42-4-13(d)(1)(A)&#127;16-8-14&#127;16-6-3(c)&#127;40-6-393(c)&#127;40-6-395(a)&#127;40-6-395(c)&#127;16-4-1&#127;16-4-8&#127;16-10-52&#127;16-10-94&#127;49-4-15&#127;16-8-2&#127;16-8-3&#127;16-8-5&#127;16-8-6&#127;16-8-7&#127;16-8-8&#127;16-8-9&#127;16-8-20&#127;16-8-4&#127;16-9-20(a)&#127;40-6-391(a)(1)&#127;40-6-391(k)(1)&#127;40-6-391(i)&#127;40-6-393.1(c)&#127;32-1-8&#127;45-11-4(b)&#127;16-5-23(f)&#127;16-5-23.1(f)(1)&#127;20-2-1181&#127;40-1-3&#127;42-5-16&#127;42-4-13(c)&#127;40-8-74&#127;16-5-21(j)&#127;16-5-20(d)&#127;40-6-95&#127;45-3-9&#127;27-3-4&#127;27-3-1&#127;27-3-15&#127;27-1-31(a)&#127;30-5-8(a)&#127;40-6-273&#127;40-8-70&#127;42-5-18 (b)&#127;42-5-15&#127;42-5-15&#127;27-3-44&#127;27-3-1.1&#127;16-11-111&#127;16-13-30.3(b.1)&#127;27-1-33&#127;27-2-1&#127;40-6-188&#127;40-6-15&#127;40-8-29(a)&#127;40-5-29(a)&#127;16-9-33&#127;16-11-106&#127;16-5-60(d)&#127;52-7-12(a)(1)&#127;52-7-20&#127;16-12-100.2(d)&#127;16-12-100.2(d)&#127;16-12-100.2(e)&#127;16-12-100.2(e)&#127;27-3-27&#127;40-5-33&#127;34-9-21&#127;16-11-42&#127;10-1-356(2)&#127;10-1-356(2)&#127;40-6-205&#127;52-7-8(d)(3)&#127;16-8-102&#127;40-2-8&#127;40-2-8&#127;40-5-30(c)&#127;40-8-22&#127;40-6-74&#127;40-8-23&#127;40-2-41&#127;40-6-296&#127;16-8-60&#127;40-6-123&#127;40-5-24&#127;40-6-96&#127;40-6-294&#127;16-5-1(c)&#127;16-5-40(b)(3)&#127;16-5-40(b)(4)&#127;16-11-112 (c) (1)&#127;16-6-25(b)(1)&#127;20-2-1180&#127;40-6-121&#127;40-6-140&#127;27-4-2&#127;12-6-152&#127;16-5-100&#127;20-2-1182&#127;40-6-126&#127;16-6-4(b)&#127;16-6-4(d)&#127;16-13-30(a)&#127;16-13-30(j)&#127;42-8-38&#127;42-8-38&#127;40-6-249&#127;27-2-42&#127;40-6-10(b)&#127;16-5-73&#127;16-13-31(f)&#127;42-1-15&#127;10-1-454(b)&#127;10-1-454(b)&#127;40-6-16&#127;16-12-100.3&#127;16-12-100.3&#127;40-8-25(c)&#127;25-10-2(b)&#127;25-10-3.2&#127;40-6-391(a)(6)&#127;27-3-9(b)&#127;27-3-13&#127;27-3-15(e)&#127;27-1-25&#127;27-1-28&#127;27-3-45&#127;27-3-63&#127;27-2-20&#127;27-2-6(c)&#127;27-3-3&#127;27-3-40&#127;42-5-15&#127;16-13-30(a)&#127;16-13-30(a)&#127;16-6-5.1&#127;40-6-51&#127;16-11-37(b)&#127;40-6-203(a)&#127;16-8-61&#127;16-12-103(a)&#127;16-5-28&#127;16-4-10&#127;40-6-201&#127;16-5-27&#127;16-5-90(c)&#127;16-6-12&#127;16-6-15(a)&#127;16-8-62&#127;16-7-21(e)&#127;16-7-29&#127;20-1A-10&#127;16-7-84&#127;16-7-85&#127;16-7-87&#127;16-7-88&#127;16-8-17&#127;16-12-100.2(c)&#127;16-8-62&#127;16-9-5&#127;16-9-5&#127;16-9-31(a)(2)&#127;16-9-33(f)&#127;16-9-33(a)(2)(D)&#127;16-9-58&#127;16-9-59(b)&#127;16-9-60&#127;16-9-71&#127;16-9-101&#127;16-9-101&#127;16-9-111&#127;16-10-24.1(b)&#127;16-10-24.2(b)&#127;16-10-32(a)&#127;16-10-51(b)&#127;16-10-53(b)&#127;16-10-90&#127;16-10-98&#127;16-11-34.1&#127;16-11-37(d)&#127;16-11-107.1&#127;16-11-109(a)(1)&#127;16-12-1&#127;16-12-1.1&#127;16-12-5&#127;16-12-38&#127;16-12-85&#127;16-5-45(b)&#127;16-6-8(c)&#127;40-4-21(a)&#127;16-11-126&#127;16-11-132(b)&#127;40-5-179&#127;40-6-11&#127;40-6-253.1&#127;40-8-90&#127;40-11-2&#127;16-12-120(a.1)&#127;16-12-125&#127;16-12-125&#127;27-1-25.1&#127;27-1-27&#127;27-1-29&#127;27-1-30&#127;27-1-32&#127;27-2-1&#127;27-2-5&#127;27-2-6(a)&#127;27-2-8&#127;27-2-9&#127;16-12-126&#127;27-2-10&#127;27-2-11&#127;27-2-12&#127;27-2-13&#127;27-2-14&#127;27-2-15&#127;27-2-16&#127;27-2-17&#127;27-2-19&#127;27-2-21&#127;27-2-22&#127;27-2-22.1&#127;27-2-23.1&#127;27-2-25.1(b)&#127;27-2-28(a)&#127;45-1-3&#127;45-9-90&#127;45-11-1&#127;45-11-2&#127;45-11-3&#127;45-11-5&#127;45-11-6&#127;45-11-7&#127;45-11-8&#127;45-11-9&#127;45-11-10&#127;45-17-20(b)&#127;45-19-5&#127;16-13-1(c)&#127;16-13-1(b)&#127;30-4-4&#127;16-13-30.4(g)(1)&#127;16-13-30.4(g)(2)&#127;16-13-30.5(a)(2)&#127;16-13-31.1&#127;16-13-32&#127;17-6-51&#127;17-6-52&#127;17-6-53&#127;17-15-11&#127;3-4-26&#127;16-17-2&#127;16-17-2&#127;40-6-270(b)&#127;16-12-123(a)&#127;52-7-18&#127;12-6-90&#127;40-8-130&#127;52-7-11&#127;40-6-52&#127;27-3-49(b)&#127;48-11-25(a)&#127;48-11-25(b)&#127;27-3-26&#127;40-6-91(a)&#127;40-8-6&#127;16-13-30(a)&#127;16-13-30(b)&#127;16-13-30(b)&#127;16-13-30(a)&#127;16-13-30(a)&#127;16-13-30(b)&#127;16-13-30(b)&#127;16-13-30(b)&#127;16-13-30(b)&#127;16-13-30(a)&#127;16-13-30(b)&#127;16-13-30(b)&#127;16-13-30(j)&#127;16-13-41&#127;16-12-120.1&#127;16-13-43(a)(3) &#127;40-6-200&#127;27-1-31(b)&#127;27-2-18&#127;4-3-12&#127;27-4-8&#127;27-2-6(d)&#127;27-2-6(b)&#127;40-6-122&#127;27-3-24&#127;27-3-46&#127;35-3-38(a)&#127;35-3-38(b)&#127;35-3-38(d)&#127;35-3-38(c)&#127;16-9-152&#127;12-3-621&#127;40-6-70&#127;17-13-33&#127;27-4-11.1&#127;40-6-45&#127;44-12-137&#127;40-8-77&#127;40-8-75&#127;40-5-61&#127;12-3-10&#127;46-7-39&#127;16-8-40(a)(2)&#127;40-6-6&#127;16-13-30(a)&#127;16-13-30(b)&#127;40-6-252&#127;16-13-30(b)&#127;40-8-10&#127;40-6-241&#127;16-11-122&#127;40-2-42&#127;43-50-45&#127;16-7-52&#127;16-13-30.3(b)&#127;16-10-33&#127;40-6-76&#127;43-34-22&#127;16-13-30.3(d)&#127;16-5-23.1&#127;42-4-13(f)(1)&#127;42-4-13(f)(2)&#127;42-4-13(g)&#127;40-6-391(l)&#127;16-13-30(a)&#127;40-6-123&#127;40-6-123(c)&#127;40-6-123(d)&#127;40-8-31&#127;16-11-131(b.1)&#127;16-11-131(b.1)&#127;40-6-10(c)&#127;40-5-24(b)(2)&#127;40-8-4&#127;40-6-203(b)&#127;40-6-203(c)&#127;27-4-2&#127;40-5-58(c)(2)&#127;16-5-70(d)&#127;16-12-103&#127;16-12-103&#127;52-7-14(c)&#127;52-7-12.1&#127;42-4-13(b)&#127;40-6-242&#127;52-7-12(l)&#127;31-21-44.2&#127;34-9-19&#127;34-9-20&#127;27-3-9 (a)&#127;27-3-9 (c)&#127;40-8-27&#127;4-8-25&#127;4-8-26&#127;4-8-28&#127;4-8-28&#127;16-12-140&#127;16-11-37.1&#127;16-13-30(k)&#127;16-11-39.2&#127;16-13-79 (b)&#127;16-13-79 (b)&#127;16-13-79 (c)&#127;16-13-79 (c)&#127;16-13-94&#127;27-3-19(a)&#127;27-3-19&#127;27-3-14&#127;27-3-22&#127;27-3-16&#127;27-3-18&#127;27-3-17&#127;27-3-25&#127;32-9-4 (b)&#127;40-8-5&#127;40-6-27&#127;40-6-313&#127;40-6-246&#127;40-9-8&#127;40-6-245&#127;40-6-98&#127;40-6-391.3&#127;40-6-276&#127;40-6-160&#127;40-3-36&#127;40-8-9&#127;40-4-7&#127;40-6-141&#127;40-6-142&#127;40-8-35&#127;40-6-92&#127;40-6-161 (a)&#127;40-6-161 (b)&#127;40-6-162&#127;40-6-75&#127;40-6-99&#127;40-5-104&#127;40-6-314&#127;40-8-50&#127;40-6-144&#127;40-6-292&#127;40-6-311&#127;40-6-243&#127;40-6-361&#127;40-6-312&#127;40-8-24&#127;40-6-297&#127;40-6-97&#127;40-6-295&#127;40-6-242&#127;40-8-3&#127;40-8-8&#127;40-2-72&#127;40-6-143&#127;40-6-362&#127;40-6-351&#127;40-6-353&#127;40-6-330&#127;40-8-6.1&#127;40-6-396 (b)&#127;40-6-352&#127;40-6-244&#127;40-6-25&#127;40-2-74&#127;42-1-1&#127;42-1-1&#127;42-1-5&#127;42-4-5&#127;42-4-12&#127;42-5-17&#127;42-5-18(c)&#127;42-5-38&#127;42-5-39&#127;42-5-40&#127;42-5-63&#127;42-6-25&#127;34-8-256&#127;42-5-18(c)&#127;52-7-12.1&#127;52-7-12(a)(2)&#127;52-7-12(a)(2)&#127;52-7-12(a)(3)&#127;52-7-12(a)(4)&#127;52-7-12(a)(5)&#127;52-7-12(i)&#127;52-7-12(k)(1)&#127;52-7-12(l)&#127;40-6-42(1)&#127;40-6-42(2)&#127;27-3-15(f)&#127;42-5-15&#127;16-11-112 (c) (1)&#127;16-11-112 (c) (2) &#127;16-11-112 (c) (3) &#127;40-6-47 (c)&#127;10-1-454(b)&#127;10-1-454(b)&#127;10-1-454(b)&#127;10-1-454(b)&#127;10-1-454(b)&#127;10-1-454(b)&#127;10-1-454(c)&#127;10-1-454(c)&#127;10-1-454(c)&#127;10-1-454(c)&#127;10-1-454(c)&#127;10-1-454(c)&#127;10-1-454(c)&#127;10-1-454(c)&#127;10-1-454(c)&#127;10-1-454(c)&#127;52-7-8(d)(2)&#127;52-7-8(j)&#127;43-17-12&#127;16-6-2(d)&#127;52-7-4&#127;52-7-4&#127;40-8-29(b)&#127;40-8-29(c)&#127;40-8-29(d)&#127;10-1-356(1)&#127;10-1-356(1)&#127;10-1-453&#127;40-2-42&#127;17-6-58&#127;40-6-10(b)&#127;16-6-25(b)(2)&#127;16-6-25(b)(3)&#127;16-13-32.1&#127;16-13-32.5(b)&#127;40-6-91(b)&#127;40-6-91(d)&#127;40-6-252&#127;16-13-30(b)&#127;16-13-30(b)&#127;16-13-30(b)&#127;16-13-30(a)&#127;40-5-121&#127;40-5-121&#127;40-5-20(a)&#127;40-5-121(a)&#127;40-5-121&#127;40-5-121&#127;40-5-121&#127;21-2-574&#127;21-2-603&#127;21-2-603&#127;42-5-18(c)&#127;16-8-21(c)&#127;16-11-37(d)&#127;40-8-76.1(e)(3)&#127;40-6-72 (b)&#127;40-6-72 (c)&#127;16-6-11&#127;16-6-10&#127;40-5-29(b)&#127;16-12-1(b)(2)&#127;16-12-1(b)(3)&#127;16-12-1(b)(2)&#127;16-12-1(b)(3)&#127;16-11-127(f)&#127;16-9-21&#127;40-2-7&#127;40-2-6&#127;16-13-43(a)(1) &#127;16-13-43(a)(2) &#127;16-13-43(a)(4) &#127;16-13-43(a)(5) &#127;40-2-20(a)&#127;16-13-30.3(d)&#127;16-13-30.3(d)&#127;16-13-30.3(b)&#127;16-13-30.3(b)&#127;16-5-46(c)&#127;16-5-46(b)&#127;16-7-43(g)&#127;16-10-21(b)&#127;16-9-35&#127;16-7-27&#127;16-11-133&#127;16-12-37(c)&#127;16-13-30.2&#127;16-13-30.2&#127;16-13-30.5(a)(1)&#127;16-6-5&#127;16-12-81&#127;16-11-160(a)(2)&#127;3-3-29&#127;3-3-29&#127;40-8-72&#127;16-10-32(b)&#127;17-6-56(c)&#127;17-6-57&#127;16-5-80(d)&#127;3-3-27(a)(2)&#127;3-3-27(a)(3)&#127;16-12-24(a)&#127;40-3-90(3)&#127;40-3-90(4)&#127;40-3-90(5)&#127;40-3-90(6)&#127;16-9-53&#127;16-9-53&#127;16-7-63(c)(1)&#127;16-7-63(a)&#127;16-7-63(a)(4)&#127;16-7-63(c)(3)&#127;16-7-63(c)(4)&#127;16-12-174(d)&#127;16-9-58&#127;40-6-250&#127;16-10-72&#127;16-11-101&#127;16-11-34.1&#127;16-11-34.1&#127;16-11-34.1&#127;3-10-2&#127;25-10-2&#127;3-3-26&#127;16-13-4&#127;10-5-1&#127;40-3-91(a)&#127;40-3-91(b)&#127;40-3-91(c)&#127;16-9-57&#127;16-9-57(d)&#127;16-9-57(d)&#127;16-10-7&#127;27-1-29&#127;30-5-8(a)&#127;30-5-8(a)&#127;30-5-8(a)&#127;30-5-8(a)&#127;30-5-8(a)&#127;30-5-8(b)(1)&#127;30-5-8(b)(1)&#127;16-12-126&#127;40-4-22&#127;40-4-21(a)&#127;40-4-21(b)&#127;27-1-25&#127;33-6-4&#127;44-7-14.1&#127;45-11-1(b)&#127;16-7-83(a)&#127;16-9-61&#127;16-11-100&#127;16-10-97&#127;UNKNOWN&#127;UNKNOWN&#127;16-12-60&#127;16-12-57&#127;16-12-59&#127;16-12-58&#127;16-12-38&#127;45-17-20(b)&#127;27-2-28(b)&#127;27-2-28(c)&#127;27-2-28(c)&#127;27-2-25.1(e)&#127;3-4-26&#127;40-11-2&#127;40-3-36&#127;40-6-144&#127;40-6-312(a)&#127;40-6-298(b)&#127;42-4-13(h)&#127;42-4-13(h)&#127;42-4-13(h)&#127;16-13-33&#127;52-7-8.2&#127;16-8-5.2&#127;16-8-5.2&#127;16-9-109.1&#127;42-8-118&#127;16-11-129(e)&#127;16-11-113&#127;16-13-30.6&#127;3-3-33&#127;4-8-6.1&#127;10-15-4&#127;7-1-912&#127;7-1-912&#127;7-1-915&#127;40-6-391(c)(4)&#127;40-6-41&#127;12-8-30.7&#127;40-6-275&#127;34-9-126&#127;4-14-3&#127;10-14-20(a)&#127;10-14-20(b)&#127;10-4-32(a)&#127;10-4-32(b)&#127;21-2-562(a)&#127;21-2-562(b)&#127;4-5-3&#127;10-1-393.2(l)&#127;10-1-40&#127;10-1-393.6&#127;10-1-393&#127;10-1-78&#127;10-4-78&#127;10-4-79&#127;10-4-80&#127;10-5-57&#127;10-5B-4&#127;12-4-143&#127;12-5-53&#127;12-8-2&#127;12-3-30,8&#127;12-8-82&#127;12-8-30.8&#127;12-9-24&#127;12-9-3&#127;13-9-6&#127;14-5-6&#127;49-4-146.1&#127;16-11-34.2&#127;16-7-58&#127;15-16-59&#127;15-21A-8&#127;15-21A-8&#127;16-5-22&#127;16-5-22&#127;16-5-29&#127;16-6-22.1(e)&#127;16-8-13&#127;16-9-6&#127;43-37-6&#127;16-9-122&#127;16-9-126(b)&#127;16-9-153&#127;16-10-51(c)(1)&#127;16-11-14&#127;16-11-127.2(b)&#127;16-11-127.2(a)&#127;16-11-172(c)&#127;16-12-1(b)(4)&#127;16-12-1(b)(5)&#127;16-12-22.1(m)&#127;16-12-37(c)&#127;16-12-100(c)&#127;16-12-100.2(f)&#127;16-12-127(a)&#127;16-12-144&#127;16-13-33&#127;16-13-33&#127;16-13-74&#127;17-13-30&#127;19-9-24(a)(1)&#127;19-9-24(a)(2)&#127;19-9-24(b)&#127;19-9-24(b)&#127;19-13-23(a)&#127;2-10-62&#127;2-14-80.1&#127;2-14-134&#127;20-1-7&#127;20-2-811&#127;21-2-385(b)&#127;21-2-417(c)&#127;21-2-563&#127;21-2-564&#127;21-2-566&#127;21-2-567&#127;21-2-568&#127;21-2-569&#127;21-2-570&#127;21-2-571&#127;21-2-572&#127;21-2-573&#127;21-2-575&#127;21-2-580&#127;21-2-581&#127;21-2-582&#127;21-2-582.1&#127;21-2-585(b)&#127;21-2-585(a)&#127;21-2-586(b)&#127;21-2-586(a)&#127;21-2-587&#127;21-2-590&#127;21-2-594&#127;21-5-30(f)&#127;21-5-30(f)&#127;24-4-64(b)&#127;24-4-64(a)&#127;26-2-22&#127;26-2-22(8)&#127;26-2-88&#127;26-2-88(c)&#127;26-3-24&#127;26-4-40&#127;26-4-49&#127;26-4-89&#127;26-4-113(b)&#127;26-4-115&#127;26-4-160&#127;26-4-161&#127;27-1-3&#127;27-5-2.1&#127;3-3-8&#127;3-3-32(a)&#127;31-12-11(e)&#127;31-12-12(a)&#127;31-21-43&#127;31-21-41&#127;31-21-44&#127;31-21-44.1&#127;31-21-45&#127;32-6-52(c)&#127;33-1-15(b)&#127;33-23-35&#127;34-8-153(h)&#127;35-2-88&#127;43-38-16&#127;35-3-108&#127;25-13-10&#127;36-60-26&#127;36-67A-2&#127;36-67A-3&#127;38-2-301(b)&#127;38-2-302(b)&#127;38-2-303(b)&#127;38-2-304(a)&#127;38-2-304(b)&#127;38-2-305(b)&#127;4-4-6(a)&#127;4-4-6(b)(5)&#127;4-4-6(g)&#127;4-4-81&#127;4-4-82&#127;4-4-95.1(f)&#127;4-4-95.1(f)&#127;4-4-95.1(f)&#127;4-6-2&#127;4-6-2&#127;4-6-5&#127;4-6-5&#127;4-6-10&#127;4-6-10&#127;4-8-42&#127;4-11-32&#127;4-11-32&#127;40-2-136(b)&#127;40-5-159(b)&#127;40-6-17&#127;40-6-326&#127;42-5-37&#127;42-8-26(c)&#127;42-8-104&#127;42-9-44&#127;43-5-7&#127;43-9-19&#127;43-11-50&#127;43-11-51&#127;43-21-13&#127;43-34-177&#127;43-34-178(a)&#127;43-35-18&#127;43-20A-21&#127;43-4A-16&#127;43-4B-21(d)&#127;43-4B-21(c)&#127;43-4B-21(d)&#127;43-4B-53&#127;43-4B-53&#127;44-2-43&#127;44-2-44&#127;44-2-45&#127;44-2-46&#127;44-3-7(b)&#127;44-3-7(a)&#127;44-3-195&#127;44-3-195&#127;44-5-155&#127;44-14-3(c.1)(2)(C)&#127;44-14-7&#127;45-7-32(a)&#127;45-7-32(a)&#127;45-15-20&#127;45-17-8(d)&#127;45-17-8(d)&#127;46-5-2(b)&#127;46-5-2(b)&#127;46-5-3(b)&#127;46-5-22&#127;46-5-24&#127;46-5-188&#127;46-5-27(f)(2)&#127;46-5-232&#127;46-7-91(b)&#127;48-1-4&#127;48-1-5&#127;48-1-5&#127;48-1-6&#127;48-1-7&#127;48-2-84&#127;48-2-84&#127;48-7-5&#127;48-7-127&#127;48-8-7&#127;48-8-7&#127;48-8-8&#127;48-8-8&#127;48-8-9&#127;48-8-9&#127;48-8-10&#127;48-8-10&#127;48-11-28&#127;48-11-28&#127;48-11-30&#127;48-13-58.1&#127;48-13-60&#127;48-16-12(b)&#127;48-16-12(c)&#127;48-17-13(d)&#127;48-17-13(c)&#127;49-4A-11(a)&#127;49-4A-11(b)&#127;49-4A-11(c)&#127;49-4A-11(d)&#127;49-4A-11(e)&#127;50-3-1(b)(1)&#127;50-3-11&#127;50-5-80(b)&#127;50-5-80(b)&#127;50-5-80(d)&#127;50-5-80(d)&#127;50-5-133&#127;50-5-146&#127;50-5-146&#127;50-27-28&#127;50-36-1&#127;52-7-7.1&#127;52-7-7.5&#127;52-7-12.2(c)&#127;52-7-12.2&#127;52-7-12.3(b)&#127;52-7-12.3(c)&#127;52-7-12.4&#127;52-7-12.6&#127;6-2-5.2&#127;6-2-5.1&#127;7-1-1019(1)&#127;7-7-6&#127;7-6A-8&#127;9-13-80(f)&#127;7-1-842&#127;16-13-30(h)&#127;16-13-30(i)&#127;16-13-30(l)&#127;10-5A-6&#127;12-5-53&#127;50-5-83(c)&#127;50-5-83(c)&#127;33-23-35&#127;35-10-10&#127;42-4-13(h)&#127;42-4-13(h)&#127;42-4-13(h)&#127;43-17-12&#127;43-32-7&#127;27-1-38&#127;43-30-14&#127;40-6-21(3)(A)&#127;4-6-52&#127;4-11-10&#127;43-34-37&#127;31-19-5&#127;48-5-22&#127;4-8-3&#127;32-6-1&#127;33-24-53&#127;52-7-16&#127;20-2-161.3(i)&#127;20-2-161.3(i)&#127;52-7-17(c)&#127;31-40-2&#127;16-7-2&#127;43-24A-15&#127;43-24A-15&#127;10-1-393.5&#127;10-1-393.5&#127;10-1-393.6&#127;40-6-90&#127;40-6-54&#127;10-1-351&#127;3-2-33&#127;40-6-241.2&#127;52-7-17(b)&#127;32-6-24&#127;42-1-18&#127;40-6-77&#127;43-34-1&#127;43-34-1&#127;16-11-37.1&#127;48-13-58.1&#127;41-1-6&#127;16-13-30(b)&#127;40-6-393(b)&#127;40-6-393(d)&#127;33-59-16&#127;40-5-125(b)&#127;43-34-40&#127;31-10-31&#127;31-10-31&#127;27-3-20&#127;27-3-73&#127;27-4-200&#127;43-14-8(c)&#127;43-14-8(a)&#127;43-14-8(b)&#127;33-23-4&#127;16-13-30(a)&#127;28-1-8&#127;28-1-8&#127;',concat('&#127;',.,'&#127;')) ) ) ">Invalid statute code value.</assert>
   </rule>
   <rule context="ecf:CourtEventTypeCode">
      <!--{}[](courtEventTypeCode)--><assert test="( false() or ( contains('&#127;Administrative Hearing&#127;Arraignment&#127;Bond Hearing&#127;Calendar Call&#127;Compliance Hearing&#127;Detention Hearing&#127;First Appearance&#127;Motion Hearing&#127;Pre-Trial Conference&#127;Probation Revocation Hearing&#127;Restitution Hearing&#127;Sentence Hearing&#127;Sentence Modification Hearing&#127;Special Hearing&#127;Status Hearing&#127;Supplemental Hearing&#127;Trial&#127;',concat('&#127;',.,'&#127;')) ) ) ">Invalid court event code value.</assert>
   </rule>
   <rule context="ga:CCHDispositionActionCode">
      <!--{}[](dispositionActionCode)--><assert test="( false() or ( contains('&#127;Guilty&#127;Guilty-Alford&#127;Guilty-Lesser Incl&#127;Not Guilty&#127;Nolo&#127;Nol Pros&#127;Dead Docket&#127;Dismissed&#127;No Bill&#127;',concat('&#127;',.,'&#127;')) ) ) ">Invalid CCH disposition action code value.</assert>
   </rule>
   <rule context="ecf:DocumentRelatedCode">
      <!--{}[](documentRelatedCode)--><assert test="( false() or ( contains('&#127;parent&#127;prior-related&#127;',concat('&#127;',.,'&#127;')) ) ) ">Invalid document related code value.</assert>
   </rule>
   <rule context="ga:DocumentSubtype">
      <!--{}[](documentSubTypeCode)--><assert test="( false() or ( contains('&#127;Motion to Compel&#127;Motion to Extend or Grant Time&#127;Motion to Intervene&#127;Motion to Quash&#127;Order Setting Aside Bench Warrant&#127;Motion: Bond&#127;Motion: Bond (Forfeiture)&#127;Motion: Bond (Modification)&#127;Motion: Bond (Revoke)&#127;Motion: Bond Reduction&#127;Motion: Change Of Venue&#127;Motion: Default Judgment&#127;Motion: Directed Verdict&#127;Motion: Discovery&#127;Motion: Dismiss&#127;Motion: Disqualify&#127;Motion: In Limine&#127;Motion: Incamera Inspection&#127;Motion: Individual Voir Dire&#127;Motion: Judgment On Pleadings&#127;Motion: Mistrial&#127;Motion: Modify&#127;Motion: New Trial&#127;Motion: Nolle Prosequi&#127;Motion: Preliminary Hearing&#127;Motion: Pre-Trial Conference&#127;Motion: Probable Cause Hearing&#127;Motion: Production Of Prisoner&#127;Motion: Reconsideration&#127;Motion: Revoke Bond&#127;Motion: Sequester Witnesses&#127;Motion: Sequestration Of Jurors&#127;Motion: Set Aside/Vacate&#127;Motion: Strike Pleadings&#127;Motion: Strike Speedy Trial Demand&#127;Motion: Summary Judgment&#127;Motion: Suppress&#127;Motion: To Amend (See Memo)&#127;Motion: Withdraw As Counsel&#127;Motion: Withdraw Plea&#127;Order for Bond&#127;Order of Commutation&#127;Order of Supervised Reprieve&#127;Order:  Transfer Judge&#127;Order: Admendment/Prob. Sentence&#127;Order: Allowing Amendment&#127;Order: Bond (Denying)&#127;Order: Bond (Forfeiture)&#127;Order: Bond (Granting)&#127;Order: Bond (Modifying)&#127;Order: Bond (Revoking)&#127;Order: Contempt&#127;Order: Dead Docket&#127;Order: Directed Verdict&#127;Order: Dismissal (See Memo)&#127;Order: Dismissing Demand For Trial&#127;Order: Extension Of Discovery&#127;Order: Final&#127;Order: First Offender Discharge&#127;Order: Incamera Inspection&#127;Order: Individual Voir Dire&#127;Order: Mental Eval./to Stand Trial&#127;Order: Modification&#127;Order: Mot For Exculpatory (Memo)&#127;Order: Mot New Trial (Denying)&#127;Order: Mot New Trial (Granting)&#127;Order: Mot to Withdraw As Counsel&#127;Order: Mot Withdraw Plea (Deny)&#127;Order: Mot Withdraw Plea (Grant)&#127;Order: Motion for Reconsideration&#127;Order: Motion In Limine&#127;Order: Motion To Compel&#127;Order: Motion To Disqualify&#127;Order: Motion To Quash (Memo)&#127;Order: Nolle Prosequi&#127;Order: Pre-Trial Conference&#127;Order: Produce Prisoner&#127;Order: Protective&#127;Order: Recusal&#127;Order: Set Aside/Vacate&#127;Order: Severance&#127;Order: Stay Of Proceedings&#127;Order: Summary Judgment (Denying)&#127;Order: Summary Judgment (Granting)&#127;Order: Transfer To Juvenile Court&#127;Order: Unsuccessful 1st Offender&#127;Order: Writ&#127;MOTION FOR 30-DAY EXTENSION&#127;MOTION FOR RECORDATION&#127;MOTION FOR REHEARING&#127;MOTION FOR REINSTATEMENT OF BOND&#127;MOTION TO PAY 5% OF JUDGMENT&#127;MOTION TO PAY 50% OF JUDGMENT&#127;MOTION TO PRESERVE EVIDENCE&#127;Motion to Stay&#127;MOTION TO WITHDRAW&#127;ORDER 30-DAY CONFERENCE&#127;ORDER SET ASIDE BF/BW REL ORIG BOND&#127;ORDER SETTING ASIDE B/WARRANT&#127;ORDER SETTING ASIDE SENTENCE&#127;ORDER TO ATTEND 120 DAY STATUS CONFERENCE&#127;ORDER TO EXPUNGE&#127;ORDER TO QUASH&#127;ORDER TO SET HEARING&#127;ORDER VACATING GUILTY PLEA&#127;ORDER VACATING JUDGMENT&#127;ORDER VACATING JUDGMENT&#127;ORDER VACATING SENTENCE&#127;ORDER: JUDGMENT SET ASIDE-BDCO&#127;ORDER:30-DAY EXTENSION GRANTED&#127;RELEASE ORDER&#127;MOTION FOR BOND&#127;Motion for Bond&#127;Motion for Extension of Time&#127;Motion for Pre-Trial Conference&#127;Motion for Reconsideration&#127;Motion to Extend Time (legacy code)&#127;Motion to Modify&#127;Motion to Modify Sentence&#127;Motion to Preserve and Demand for Inspection of Evidence&#127;Motion to Release&#127;Motion to Set Aside Judgment&#127;Motion to Stay Proceedings&#127;Motion to Vacate Bench Warrant&#127;Motion/Order to Modify Bond&#127;Order for Continuance / Extend Time&#127;Order for Hearing&#127;Order on Motion to Quash&#127;Order Reducing Judgment&#127;Order to Release&#127;Original Bench Warrant Recall&#127;',concat('&#127;',.,'&#127;')) ) ) ">Invalid document subtype code value.</assert>
   </rule>
   <rule context="ga:OrganizationCategoryCode">
      <!--{}[](endpointCode)--><assert test="( false() or ( contains('&#127;PROS&#127;SUCT&#127;STCT&#127;GPDC&#127;PROB&#127;SHRF&#127;GCIC&#127;GDOC&#127;GDCS&#127;PRAT&#127;',concat('&#127;',.,'&#127;')) ) ) ">Invalid endpoint code value.</assert>
   </rule>
   <rule context="cbrn:ErrorCodeText">
      <!--{}[](errorCodeText)--><assert test="( false() or ( contains('&#127;0&#127;1&#127;2&#127;3&#127;4&#127;5&#127;6&#127;7&#127;8&#127;9&#127;10&#127;11&#127;12&#127;13&#127;14&#127;15&#127;16&#127;17&#127;18&#127;19&#127;20&#127;21&#127;22&#127;23&#127;24&#127;25&#127;26&#127;27&#127;28&#127;29&#127;30&#127;31&#127;32&#127;33&#127;34&#127;35&#127;36&#127;100&#127;101&#127;102&#127;103&#127;',concat('&#127;',.,'&#127;')) ) ) ">Invalid error code value.</assert>
   </rule>
   <rule context="hdr:ExecutionEnvironmentCode">
      <!--{}[](executionEnvironmentCode)--><assert test="( false() or ( contains('&#127;DEVT&#127;TEST&#127;PROD&#127;',concat('&#127;',.,'&#127;')) ) ) ">Invalid environment code value.</assert>
   </rule>
   <rule context="filing:FilingLeadDocument/nc:DocumentCategoryText">
      <!--{}[](filingCategoryCode)--><assert test="( false() or ( contains('&#127;Accusation&#127;Indictment&#127;Appearance&#127;Motion&#127;Violation&#127;',concat('&#127;',.,'&#127;')) ) ) ">Invalid filing category code value.</assert>
   </rule>
   <rule context="filing:FilingConnectedDocument/nc:DocumentCategoryText">
      <!--{}[](filingCategoryCode)--><assert test="( false() or ( contains('&#127;Accusation&#127;Indictment&#127;Appearance&#127;Motion&#127;Violation&#127;',concat('&#127;',.,'&#127;')) ) ) ">Invalid filing category code value.</assert>
   </rule>
   <rule context="ecf:FilingStatusCode">
      <!--{}[](filingStatusCode)--><assert test="( false() or ( contains('&#127;accepted&#127;cancelled&#127;partially-accepted&#127;received&#127;rejected&#127;middleware-send-failure&#127;',concat('&#127;',.,'&#127;')) ) ) ">Invalid filing status code value.</assert>
   </rule>
   <rule context="ga:FirstRepeatOffenderCode">
      <!--{}[](firstRepeatOffenderCode)--><assert test="( false() or ( contains('&#127;42-8-60&#127;16-13-2&#127;17-10-7c&#127;17-10-7a&#127;16-7-1b&#127;16-8-14b&#127;',concat('&#127;',.,'&#127;')) ) ) ">Invalid first repeat offender code value.</assert>
   </rule>
   <rule context="ga:CourtCategoryCode">
      <!--{}[](gaCourtCategoryCode)--><assert test="( false() or ( contains('&#127;Superior&#127;State&#127;Magistrate&#127;Juvenile&#127;',concat('&#127;',.,'&#127;')) ) ) ">Invalid court category code value.</assert>
   </rule>
   <rule context="ga:ChargeGCICCode">
      <!--{}[](gcicChargeCodeList)--><assert test="( false() or ( contains('&#127;0008&#127;0009&#127;0011&#127;0013&#127;0014&#127;0015&#127;0016&#127;0101&#127;0109&#127;0115&#127;0120&#127;0125&#127;0200&#127;0201&#127;0202&#127;0203&#127;0204&#127;0801&#127;0802&#127;0803&#127;0804&#127;0805&#127;0806&#127;0807&#127;0808&#127;0809&#127;0811&#127;0812&#127;0813&#127;0814&#127;0815&#127;0816&#127;0916&#127;0917&#127;0918&#127;0919&#127;0921&#127;0922&#127;0923&#127;0925&#127;0927&#127;0928&#127;0930&#127;0931&#127;0932&#127;0933&#127;0934&#127;0936&#127;0937&#127;0948&#127;0954&#127;0968&#127;0969&#127;1012&#127;1023&#127;1024&#127;1025&#127;1040&#127;1041&#127;1045&#127;1055&#127;1090&#127;1095&#127;1101&#127;1102&#127;1103&#127;1104&#127;1105&#127;1106&#127;1107&#127;1108&#127;1109&#127;1110&#127;1111&#127;1112&#127;1113&#127;1114&#127;1115&#127;1116&#127;1120&#127;1121&#127;1122&#127;1123&#127;1127&#127;1129&#127;1130&#127;1132&#127;1133&#127;1134&#127;1139&#127;1140&#127;1141&#127;1146&#127;1151&#127;1152&#127;1153&#127;1154&#127;1155&#127;1156&#127;1157&#127;1158&#127;1159&#127;1160&#127;1161&#127;1162&#127;1163&#127;1164&#127;1165&#127;1166&#127;1167&#127;1170&#127;1175&#127;1179&#127;1180&#127;1181&#127;1182&#127;1185&#127;1190&#127;1191&#127;1192&#127;1193&#127;1194&#127;1195&#127;1201&#127;1216&#127;1301&#127;1302&#127;1313&#127;1314&#127;1316&#127;1317&#127;1318&#127;1319&#127;1320&#127;1321&#127;1322&#127;1340&#127;1341&#127;1342&#127;1343&#127;1344&#127;1345&#127;1351&#127;1352&#127;1353&#127;1354&#127;1355&#127;1356&#127;1357&#127;1358&#127;1359&#127;1360&#127;1373&#127;1375&#127;1376&#127;1377&#127;1379&#127;1381&#127;1382&#127;1383&#127;1384&#127;1385&#127;1386&#127;1389&#127;1407&#127;1408&#127;1500&#127;1501&#127;1502&#127;1503&#127;1504&#127;1505&#127;2013&#127;2014&#127;2015&#127;2101&#127;2102&#127;2103&#127;2108&#127;2109&#127;2119&#127;2120&#127;2173&#127;2198&#127;2203&#127;2303&#127;2304&#127;2305&#127;2306&#127;2314&#127;2315&#127;2317&#127;2320&#127;2321&#127;2329&#127;2330&#127;2337&#127;2338&#127;2343&#127;2344&#127;2348&#127;2354&#127;2355&#127;2357&#127;2358&#127;2361&#127;2374&#127;2375&#127;2376&#127;2377&#127;2380&#127;2381&#127;2383&#127;2384&#127;2387&#127;2388&#127;2391&#127;2392&#127;2393&#127;2395&#127;2396&#127;2510&#127;2527&#127;2529&#127;2531&#127;2532&#127;2533&#127;2540&#127;2541&#127;2542&#127;2543&#127;2549&#127;2552&#127;2553&#127;2554&#127;2555&#127;2556&#127;2557&#127;2558&#127;2565&#127;2570&#127;2575&#127;2580&#127;2602&#127;2603&#127;2604&#127;2605&#127;2606&#127;2607&#127;2608&#127;2610&#127;2612&#127;2613&#127;2614&#127;2615&#127;2616&#127;2617&#127;2618&#127;2619&#127;2620&#127;2621&#127;2622&#127;2623&#127;2624&#127;2625&#127;2626&#127;2629&#127;2631&#127;2632&#127;2633&#127;2634&#127;2635&#127;2637&#127;2638&#127;2639&#127;2640&#127;2641&#127;2642&#127;2643&#127;2644&#127;2645&#127;2646&#127;2647&#127;2648&#127;2649&#127;2650&#127;2651&#127;2652&#127;2653&#127;2654&#127;2655&#127;2656&#127;2657&#127;2659&#127;2660&#127;2661&#127;2663&#127;2664&#127;2665&#127;2667&#127;2669&#127;2670&#127;2671&#127;2673&#127;2674&#127;2677&#127;2678&#127;2679&#127;2680&#127;2681&#127;2682&#127;2683&#127;2686&#127;2687&#127;2688&#127;2689&#127;2690&#127;2692&#127;2693&#127;2695&#127;2696&#127;2697&#127;2698&#127;2701&#127;2702&#127;2703&#127;2704&#127;2705&#127;2912&#127;2915&#127;2918&#127;2922&#127;2923&#127;2935&#127;2942&#127;2944&#127;2949&#127;2950&#127;2951&#127;2955&#127;2956&#127;2958&#127;2976&#127;2980&#127;2981&#127;2982&#127;2983&#127;2984&#127;3501&#127;3502&#127;3503&#127;3504&#127;3505&#127;3506&#127;3508&#127;3509&#127;3510&#127;3511&#127;3514&#127;3515&#127;3516&#127;3517&#127;3520&#127;3521&#127;3522&#127;3523&#127;3524&#127;3526&#127;3527&#127;3528&#127;3529&#127;3530&#127;3531&#127;3532&#127;3533&#127;3534&#127;3535&#127;3536&#127;3537&#127;3538&#127;3539&#127;3540&#127;3541&#127;3542&#127;3543&#127;3544&#127;3545&#127;3546&#127;3547&#127;3548&#127;3549&#127;3550&#127;3553&#127;3554&#127;3555&#127;3556&#127;3558&#127;3559&#127;3560&#127;3561&#127;3562&#127;3563&#127;3564&#127;3565&#127;3566&#127;3567&#127;3568&#127;3569&#127;3570&#127;3571&#127;3573&#127;3574&#127;3575&#127;3576&#127;3577&#127;3578&#127;3579&#127;3580&#127;3581&#127;3582&#127;3583&#127;3592&#127;3594&#127;3595&#127;3596&#127;3598&#127;3705&#127;3707&#127;3709&#127;3711&#127;3780&#127;3785&#127;3790&#127;3803&#127;3804&#127;3810&#127;3811&#127;3815&#127;3816&#127;3817&#127;3818&#127;3819&#127;3821&#127;3822&#127;3823&#127;3824&#127;3825&#127;3827&#127;3828&#127;3830&#127;3840&#127;3841&#127;3842&#127;3850&#127;3860&#127;3861&#127;3862&#127;3863&#127;3864&#127;3866&#127;3871&#127;3875&#127;3876&#127;3890&#127;3892&#127;3895&#127;3896&#127;3901&#127;3902&#127;3903&#127;3904&#127;3905&#127;3906&#127;3911&#127;3912&#127;3913&#127;3923&#127;3924&#127;3932&#127;3935&#127;3943&#127;3959&#127;3960&#127;3970&#127;3975&#127;3981&#127;3982&#127;3990&#127;3991&#127;4004&#127;4027&#127;4028&#127;4037&#127;4040&#127;4041&#127;4043&#127;4047&#127;4048&#127;4050&#127;4065&#127;4104&#127;4108&#127;4109&#127;4115&#127;4120&#127;4125&#127;4130&#127;4131&#127;4132&#127;4150&#127;4175&#127;4302&#127;4304&#127;4306&#127;4308&#127;4310&#127;4312&#127;4314&#127;4316&#127;4804&#127;4805&#127;4808&#127;4814&#127;4824&#127;4832&#127;4833&#127;4835&#127;4844&#127;4846&#127;4847&#127;4850&#127;4855&#127;4856&#127;4857&#127;4859&#127;4864&#127;4865&#127;4866&#127;4870&#127;4871&#127;4872&#127;4873&#127;4874&#127;4902&#127;4904&#127;4905&#127;4906&#127;4907&#127;4972&#127;4975&#127;4976&#127;4977&#127;5001&#127;5002&#127;5003&#127;5004&#127;5005&#127;5009&#127;5010&#127;5011&#127;5014&#127;5017&#127;5018&#127;5020&#127;5025&#127;5030&#127;5031&#127;5032&#127;5033&#127;5040&#127;5046&#127;5050&#127;5063&#127;5068&#127;5072&#127;5073&#127;5074&#127;5075&#127;5076&#127;5095&#127;5096&#127;5115&#127;5116&#127;5127&#127;5129&#127;5134&#127;5137&#127;5140&#127;5150&#127;5160&#127;5162&#127;5189&#127;5190&#127;5201&#127;5202&#127;5203&#127;5204&#127;5210&#127;5211&#127;5217&#127;5220&#127;5226&#127;5236&#127;5237&#127;5240&#127;5241&#127;5246&#127;5247&#127;5249&#127;5252&#127;5253&#127;5254&#127;5255&#127;5260&#127;5261&#127;5262&#127;5263&#127;5267&#127;5270&#127;5271&#127;5272&#127;5273&#127;5274&#127;5275&#127;5280&#127;5281&#127;5282&#127;5283&#127;5284&#127;5285&#127;5289&#127;5290&#127;5291&#127;5292&#127;5293&#127;5294&#127;5295&#127;5296&#127;5302&#127;5306&#127;5307&#127;5309&#127;5311&#127;5312&#127;5313&#127;5315&#127;5320&#127;5324&#127;5330&#127;5331&#127;5350&#127;5351&#127;5352&#127;5359&#127;5360&#127;5361&#127;5363&#127;5364&#127;5365&#127;5366&#127;5367&#127;5370&#127;5371&#127;5387&#127;5388&#127;5389&#127;5390&#127;5391&#127;5392&#127;5401&#127;5402&#127;5403&#127;5404&#127;5405&#127;5406&#127;5407&#127;5408&#127;5409&#127;5410&#127;5411&#127;5412&#127;5413&#127;5414&#127;5415&#127;5416&#127;5417&#127;5418&#127;5419&#127;5420&#127;5421&#127;5422&#127;5423&#127;5425&#127;5426&#127;5427&#127;5428&#127;5429&#127;5430&#127;5433&#127;5434&#127;5436&#127;5437&#127;5440&#127;5441&#127;5442&#127;5444&#127;5448&#127;5449&#127;5450&#127;5451&#127;5453&#127;5460&#127;5461&#127;5462&#127;5463&#127;5464&#127;5465&#127;5466&#127;5470&#127;5471&#127;5472&#127;5475&#127;5476&#127;5480&#127;5481&#127;5482&#127;5483&#127;5490&#127;5492&#127;5493&#127;5495&#127;5496&#127;5497&#127;5498&#127;5501&#127;5502&#127;5503&#127;5504&#127;5505&#127;5506&#127;5507&#127;5508&#127;5509&#127;5512&#127;5515&#127;5517&#127;5518&#127;5519&#127;5520&#127;5522&#127;5523&#127;5524&#127;5525&#127;5527&#127;5528&#127;5529&#127;5530&#127;5531&#127;5532&#127;5533&#127;5534&#127;5536&#127;5537&#127;5538&#127;5540&#127;5541&#127;5542&#127;5543&#127;5551&#127;5553&#127;5554&#127;5555&#127;5557&#127;5558&#127;5561&#127;5562&#127;5563&#127;5564&#127;5565&#127;5570&#127;5571&#127;5580&#127;5581&#127;5589&#127;5590&#127;5596&#127;5597&#127;5701&#127;5702&#127;5703&#127;5710&#127;5720&#127;5750&#127;5752&#127;5760&#127;5775&#127;5777&#127;5778&#127;5780&#127;5801&#127;5802&#127;5803&#127;5804&#127;5805&#127;5815&#127;5820&#127;5840&#127;5850&#127;5852&#127;5855&#127;5857&#127;5858&#127;5859&#127;5860&#127;5890&#127;5894&#127;5895&#127;5896&#127;5897&#127;6101&#127;6102&#127;6103&#127;6104&#127;6105&#127;6106&#127;6107&#127;6108&#127;6109&#127;6110&#127;6111&#127;6113&#127;6114&#127;6115&#127;6116&#127;6117&#127;6118&#127;6122&#127;6125&#127;6129&#127;6130&#127;6139&#127;6140&#127;6142&#127;6143&#127;6144&#127;6145&#127;6146&#127;6147&#127;6148&#127;6149&#127;6150&#127;6180&#127;6201&#127;6202&#127;6203&#127;6205&#127;6206&#127;6207&#127;6209&#127;6210&#127;6211&#127;6212&#127;6213&#127;6214&#127;6215&#127;6216&#127;6218&#127;6219&#127;6222&#127;6225&#127;6226&#127;6227&#127;6230&#127;6240&#127;6241&#127;6242&#127;6243&#127;6244&#127;6245&#127;6246&#127;6247&#127;6248&#127;6249&#127;6250&#127;6251&#127;6252&#127;6253&#127;6254&#127;6255&#127;6256&#127;6257&#127;6258&#127;6259&#127;6260&#127;6261&#127;6262&#127;6263&#127;6264&#127;6265&#127;6266&#127;6267&#127;6268&#127;6269&#127;6270&#127;6271&#127;6272&#127;6273&#127;6280&#127;6285&#127;6900&#127;6901&#127;6904&#127;6905&#127;6960&#127;6961&#127;6962&#127;6963&#127;6964&#127;6965&#127;6966&#127;6968&#127;6969&#127;6970&#127;6971&#127;6972&#127;6974&#127;6975&#127;6977&#127;6978&#127;6980&#127;6981&#127;6982&#127;6985&#127;6986&#127;6987&#127;6988&#127;6991&#127;6994&#127;7000&#127;7103&#127;7105&#127;7106&#127;7107&#127;7110&#127;7111&#127;7112&#127;7113&#127;7115&#127;7117&#127;7120&#127;7121&#127;7122&#127;7123&#127;7124&#127;7125&#127;7126&#127;7127&#127;7128&#127;7129&#127;7130&#127;7131&#127;7136&#127;7137&#127;7138&#127;7139&#127;7140&#127;7141&#127;7142&#127;7143&#127;7144&#127;7145&#127;7146&#127;7147&#127;7150&#127;7151&#127;7152&#127;7154&#127;7155&#127;7158&#127;7159&#127;7160&#127;7161&#127;7170&#127;7171&#127;7172&#127;7173&#127;7174&#127;7175&#127;7176&#127;7177&#127;7178&#127;7180&#127;7181&#127;9000&#127;2204&#127;2684&#127;2691&#127;NR&#127;',concat('&#127;',.,'&#127;')) ) ) ">Invalid gcic charge code value.</assert>
   </rule>
   <rule context="ga:JursidictionCountyCode">
      <!--{}[](gcicCountyCodes)--><assert test="( false() or ( contains('&#127;001&#127;002&#127;003&#127;004&#127;005&#127;006&#127;007&#127;008&#127;009&#127;010&#127;011&#127;012&#127;013&#127;014&#127;015&#127;016&#127;017&#127;018&#127;019&#127;020&#127;021&#127;022&#127;023&#127;024&#127;025&#127;026&#127;027&#127;028&#127;029&#127;030&#127;031&#127;032&#127;033&#127;034&#127;035&#127;036&#127;037&#127;038&#127;039&#127;040&#127;041&#127;042&#127;043&#127;044&#127;045&#127;046&#127;047&#127;048&#127;049&#127;050&#127;051&#127;052&#127;053&#127;054&#127;055&#127;056&#127;057&#127;058&#127;059&#127;060&#127;061&#127;062&#127;063&#127;064&#127;065&#127;066&#127;067&#127;068&#127;069&#127;070&#127;071&#127;072&#127;073&#127;074&#127;075&#127;076&#127;077&#127;078&#127;079&#127;080&#127;081&#127;082&#127;083&#127;084&#127;085&#127;086&#127;087&#127;088&#127;089&#127;090&#127;091&#127;092&#127;093&#127;094&#127;095&#127;096&#127;097&#127;098&#127;099&#127;100&#127;101&#127;102&#127;103&#127;104&#127;105&#127;106&#127;107&#127;108&#127;109&#127;110&#127;111&#127;112&#127;113&#127;114&#127;115&#127;116&#127;117&#127;118&#127;119&#127;120&#127;121&#127;122&#127;123&#127;124&#127;125&#127;126&#127;127&#127;128&#127;129&#127;130&#127;131&#127;132&#127;133&#127;134&#127;135&#127;136&#127;137&#127;138&#127;139&#127;140&#127;141&#127;142&#127;143&#127;144&#127;145&#127;146&#127;147&#127;148&#127;149&#127;150&#127;151&#127;152&#127;153&#127;154&#127;155&#127;156&#127;157&#127;158&#127;159&#127;',concat('&#127;',.,'&#127;')) ) ) ">Invalid gcic county code value.</assert>
   </rule>
   <rule context="ga:PleaCode">
      <!--{}[](pleaCode)--><assert test="( false() or ( contains('&#127;Negotiated&#127;Non-negotiated&#127;',concat('&#127;',.,'&#127;')) ) ) ">Invalid plea code value.</assert>
   </rule>
   <rule context="ecf:RegisterActionDescriptionCode">
      <!--{}[](registerActionDescriptionCode)--><assert test="( false() or ( contains('&#127;Accusation&#127;Indictment&#127;Appearance&#127;Motion&#127;Petition&#127;Warrant&#127;',concat('&#127;',.,'&#127;')) ) ) ">Invalid document type code value. See RegisterActionDescriptionCode.gc for values.</assert>
   </rule>
   <rule context="ga:SentenceAssociationCode">
      <!--{}[](sentenceChargeAssociationCodeList)--><assert test="( false() or ( contains('&#127;Concurrent&#127;Consecutive&#127;Merged&#127;Suspended&#127;',concat('&#127;',.,'&#127;')) ) ) ">Invalid sentence charge association code value.</assert>
   </rule>
   <rule context="ga:CCHSentenceConditionCode">
      <!--{}[](sentenceConditionCCHCode)--><assert test="( false() or ( contains('&#127;DUMMY CODE&#127;',concat('&#127;',.,'&#127;')) ) ) ">Invalid CCH sentence condition code value.</assert>
   </rule>
   <rule context="ga:SentenceCategoryCode">
      <!--{}[](sentenceTypeCode)--><assert test="( false() or ( contains('&#127;GUILTY - SENTENCE - REQUIRES YEARS, MONTHS, DAYS SENTENCE LENGTH&#127;GUILTY - DEATH&#127;GUILTY - LIFE WITH PAROLE&#127;NOLE PROSSED&#127;NOT GUILTY&#127;GUILTY - LIFE W/O PAROLE&#127;GUILTY - LIFE MENTALLY ILL&#127;GUILTY - LIFE + 25&#127;GUILTY - MENTALLY ILL - REQUIRES YEARS, MONTHS, DAYS SENTENCE LENGTH&#127;GUILTY - LIFE PROBATION&#127;NOLO CONTENDERE&#127;COMMUNITY SERVICE&#127;DEATH SENTENCE&#127;LIFE&#127;PROBATION&#127;RESTITUTION&#127;SCHOOL (MAY INCLUDE OBTAINING GED)&#127;SURCHARGE&#127;RISK REDUCTION PROGRAM&#127;CONDITIONAL DISCHARGE PROGRAM&#127;PRE-TRIAL RELEASE AND DIVERSION PROGRAM&#127;INDETERMINATE&#127;CONVICTION VACATED DUE TO HABEAS CORPUS&#127;ALFORD PLEA&#127;ALCOHOL AND DRUG TREATMENT&#127;CONFINEMENT&#127;DISMISSED PENDING COMPLETION OF CONDITIONS&#127;HOUSE ARREST&#127;SUSPENDED SENTENCE - CONFINEMENT&#127;SUSPENDED SENTENCE - PROBATION&#127;OTHER SENTENCE TYPE&#127;PAROLE&#127;REMITTITUR&#127;',concat('&#127;',.,'&#127;')) ) ) ">Invalid sentence type code value.</assert>
   </rule>
   <rule context="ecf:ServiceInteractionProfileCode">
      <!--{}[](serviceInteractionProfileCode)--><assert test="( false() or ( contains('&#127;urn:oasis:names:tc:legalxml-courtfiling:schema:xsd:WebServicesMessaging-5.0&#127;urn:cje:schema:xsd:WebServicesMessaging-1.0&#127;',concat('&#127;',.,'&#127;')) ) ) ">Invalid service interaction profile code value.</assert>
   </rule>
   <rule context="ecf:ServiceStatusCode">
      <!--{}[](serviceStatusCode)--><assert test="( false() or ( contains('&#127;delivered&#127;opened&#127;sent&#127;unrecognized&#127;',concat('&#127;',.,'&#127;')) ) ) ">Invalid service status code value.</assert>
   </rule>
   <rule context="ga:VerdictCode">
      <!--{}[](verdictCodeList)--><assert test="( false() or ( contains('&#127;Jury&#127;Non-jury&#127;',concat('&#127;',.,'&#127;')) ) ) ">Invalid verdict code value.</assert>
   </rule>
</pattern>